//		아이템 정보		//


*이름		"앤션트 리벤지"
*Name		"Ancient Revenge"
*코드		"WC108"
*유니크		2

*이펙트설정	1

///////////////	공통사항		 ////////////

*내구력		100	100
*무게		17
*가격		30000

///////////////	원소		/////////////

*생체		
*대자연		
*불		
*냉기		
*번개		
*독		
*물		
*바람		

///////////////	공격성능		/////////////
// 추가요인	최소	최대	

*공격력		18 18	24 24
*사정거리	
*공격속도	8
*명중력		120	120
*크리티컬	9

//////////////	방어성능		/////////////
// 추가요인

*흡수력		
*방어력		25	25
*블럭율		

//////////////	신발성능		/////////////
// 추가요인

*이동속도		

//////////////	저장공간		/////////////
// 소켓공간할당

*보유공간		

//////////////	특수능력		/////////////
// 추가요인

*생명력재생	
*기력재생	
*근력재생	
*생명력추가	
*기력추가	
*근력추가	
*마법기술숙련도	

//////////////	요구특성		/////////////
// 사용제한 요구치

*레벨		40
*힘		
*정신력		
*재능		
*민첩성		
*건강		

/////////////	회복약		 ////////////
// 추가요인	최소	최대

*생명력상승	
*기력상승	
*근력상승	

//////////////	캐릭터특성	/////////////
// 캐릭터별 특화성능

//**특화 Rogue //

//**특화랜덤 Atalanta Mechanician
// Shaman //

//**명중력	1	3
//**크리티컬	6
//**공격속도	1

*연결파일	"name\2_WC108.zhoon"