//		아이템 정보		//


*이름		"Ring of Purity"
*Name		"Ring of Purity"
*코드		"OR104"
*유니크

///////////////	공통사항		 ////////////

*내구력		
*무게		2
*가격		10000

///////////////	원소		/////////////

*생체		
*불		
*냉기		
*번개		
*독		5	5

///////////////	공격성능		/////////////
// 추가요인	최소	최대	

*공격력		
*사정거리		
*공격속도		
*명중력		
*크리티컬		

//////////////	방어성능		/////////////
// 추가요인

*흡수력		0.5	0.5
*방어력		
*블럭율		

//////////////	신발성능		/////////////
// 추가요인

*이동속도		

//////////////	저장공간		/////////////
// 소켓공간할당

*보유공간		

//////////////	특수능력		/////////////
// 추가요인

*생명력재생	
*기력재생
*근력재생
*생명력추가
*기력추가	10	10
*근력추가	
*마법기술숙련도
//////////////	요구특성		/////////////
// 사용제한 요구치

*레벨		20
*힘		
*정신력		
*재능		
*민첩성		
*건강		

/////////////	회복약		 ////////////
// 추가요인	최소	최대

*스테미너상승	
*마나상승	
*라이프상승	

//////////////	캐릭터특성	/////////////
// 캐릭터별 특화성능

*연결파일        "name\_Uor104_Ring of Purity"