//		아이템 정보		//


*이름		"썰레스철 로브"
*NAME		"Celestial Robe"
*코드		"DA217"

///////////////	공통사항		 ////////////

*내구력		86 110
*무게		68
*가격		150000

///////////////	원소		/////////////

*생체		8 15
*불		8 15
*냉기		8 15
*번개		8 15
*독		8 15

///////////////	공격성능		/////////////
// 추가요인	최소	최대	

*공격력		
*사정거리		
*공격속도		
*명중력		
*크리티컬		

//////////////	방어성능		/////////////
// 추가요인

*흡수력		4.4	4.799
//*흡수력		9.3	9.699
*방어력		200 230
*블럭율		

//////////////	이동성능		/////////////
// 추가요인

*이동속도		

//////////////	저장공간		/////////////
// 소켓공간할당

*보유공간		

//////////////	특수능력		/////////////
// 추가요인

*생명력재생	
*기력재생
*근력재생
*생명력추가
*기력추가		
*근력추가
*마법기술숙련도	

//////////////	요구특성		/////////////
// 사용제한 요구치

*레벨		75
*힘		
*정신력		170
*재능		90
*민첩성		
*건강		

/////////////	회복약		 ////////////
// 추가요인	최소	최대

*생명력상승
*기력상승		
*근력상승

//////////////	캐릭터특성	/////////////
// 캐릭터별 특화성능

**특화랜덤 Priestess Magician

// Prayer Shaman //

**흡수력	1.0	1.599
**방어력	35	40
**기력재생	2.0	2.299

*연결파일        "name\da217.zhoon"