//		아이템 정보		//


*이름		"카이트 쉴드"
*Name		"Kite Shield"
*코드		"DS104"

///////////////	공통사항		 ////////////

*내구력		40 65
*무게		12
*가격		3300

///////////////	원소		/////////////

*생체		2 3
*불		2 3
*냉기		2 3
*번개		2 3
*독		2 3

///////////////	공격성능		/////////////
// 추가요인	최소	최대	

*공격력		
*사정거리		
*공격속도		
*명중력		
*크리티컬		

//////////////	방어성능		/////////////
// 추가요인

*흡수력		0.6 1.199
*방어력		25 45
*블럭율		8 14

//////////////	신발성능		/////////////
// 추가요인

*이동속도		

//////////////	저장공간		/////////////
// 소켓공간할당

*보유공간		

//////////////	특수능력		/////////////
// 추가요인

*생명력재생	
*기력재생
*근력재생
*생명력추가
*기력추가		
*근력추가
*마법기술숙련도

//////////////	요구특성		/////////////
// 사용제한 요구치

*레벨		9
*힘		50
*정신력		
*재능		30
*민첩성		
*건강		

/////////////	회복약		 ////////////
// 추가요인	최소	최대

*생명력상승
*기력상승		
*근력상승	

//////////////	캐릭터특성	/////////////
// 캐릭터별 특화성능

**특화랜덤 Knight Atalanta Mechanician Fighter Pikeman Archer

// Rogue Pilgrim//

**흡수력	0.3	0.599
**블럭율	4
**방어력	4	10

*연결파일        "name\DS104.zhoon"