//		아이템 정보		//


*이름		"글래디에이터 해머"
*Name		"Gladiator Hammer"
*코드		"WH118"

///////////////	공통사항		 ////////////

*내구력		105	130
*무게		66
*가격		400000

///////////////	원소		/////////////

*생체		
*불		
*냉기		
*번개		
*독		

///////////////	공격성능		/////////////
// 추가요인	최소	최대	

*공격력		37 40	63 66
*사정거리	
*공격속도	7
*명중력		144	165
*크리티컬	18

//////////////	방어성능		/////////////
// 추가요인

*흡수력		
*방어력		
*블럭율		10

//////////////	신발성능		/////////////
// 추가요인

*이동속도		

//////////////	저장공간		/////////////
// 소켓공간할당

*보유공간		

//////////////	특수능력		/////////////
// 추가요인

*생명력재생	
*기력재생	
*근력재생	
*생명력추가	
*기력추가	
*근력추가	
*마법기술숙련도	

//////////////	요구특성		/////////////
// 사용제한 요구치

*레벨		80
*힘		130
*정신력		
*재능		85
*민첩성		
*건강		

/////////////	회복약		 ////////////
// 추가요인	최소	최대

*생명력상승	
*기력상승	
*근력상승	

//////////////	캐릭터특성	/////////////
// 캐릭터별 특화성능
//**특화 Pilgrim //

**특화랜덤 Knight Mechanician Pikeman

**공격력	0	7
**명중력	1	3
**크리티컬	2
**공격속도	1

*연결파일	"name\WH118.zhoon"