//		아이템 정보		//


*이름		"쏘울러"
*Name		"Solar"
*코드		"WH113"

///////////////	공통사항		 ////////////

*내구력		64 82
*무게		41
*가격		54000

///////////////	원소		/////////////

*생체		
*불		
*냉기		
*번개		
*독		

///////////////	공격성능		/////////////
// 추가요인	최소	최대	

*공격력		16 19	30 36
*사정거리	
*공격속도	6
*명중력		90 110
*크리티컬	9

//////////////	방어성능		/////////////
// 추가요인

*흡수력		
*방어력		
*블럭율		

//////////////	신발성능		/////////////
// 추가요인

*이동속도		

//////////////	저장공간		/////////////
// 소켓공간할당

*보유공간		

//////////////	특수능력		/////////////
// 추가요인

*생명력재생	
*기력재생	
*근력재생	
*생명력추가	
*기력추가	
*근력추가	
*마법기술숙련도	

//////////////	요구특성		/////////////
// 사용제한 요구치

*레벨		59
*힘		115
*정신력		
*재능		75
*민첩성		75
*건강		

/////////////	회복약		 ////////////
// 추가요인	최소	최대

*생명력상승	
*기력상승	
*근력상승	

//////////////	캐릭터특성	/////////////
// 캐릭터별 특화성능
//**특화 Pilgrim //

**특화랜덤 Knight Atalanta Priestess Mechanician Pikeman
//Prayer //

**공격력	0	7
**명중력	1	3
**공격속도	1

*연결파일	"name\WH113.zhoon"