//		아이템 정보		//


*이름		"엘븐 완드"
*Name		"Elven Wand"
*코드		"WM106"

///////////////	공통사항		 ////////////

*내구력		32 44
*무게		5
*가격		7000

///////////////	원소		/////////////

*생체		
*대자연		
*불		
*냉기		
*번개		
*독		
*물		
*바람		

///////////////	공격성능		/////////////
// 추가요인	최소	최대	

*공격력		6 7	9 11
*사정거리	150	
*공격속도	7
*명중력		34 44
//*크리티컬	3

//////////////	방어성능		/////////////
// 추가요인

*흡수력		
*방어력		
*블럭율		

//////////////	신발성능		/////////////
// 추가요인

*이동속도		

//////////////	저장공간		/////////////
// 소켓공간할당

*보유공간		

//////////////	특수능력		/////////////
// 추가요인

*생명력재생	
*기력재생	
*근력재생	
*생명력추가	
*기력추가	
*근력추가	
*마법기술숙련도	14	17

//////////////	요구특성		/////////////
// 사용제한 요구치

*레벨		16
*힘		
*정신력		62
*재능		36
*민첩성		
*건강		

/////////////	회복약		 ////////////
// 추가요인	최소	최대

*생명력상승	
*기력상승	
*근력상승	

//////////////	캐릭터특성	/////////////
// 캐릭터별 특화성능

**특화랜덤 Priestess Magician

// Prayer Shaman

**마법숙련도	3	5		
**기력재생	0.3	0.699		
**공격속도	1

*연결파일	"name\WM106.zhoon"