//		아이템 정보		//


*이름		"와이번 완드"
*Name		"Wyvern Wand"
*코드		"WM120"

///////////////	공통사항		 ////////////

*내구력		122	134
*무게		27
*가격		1200000

///////////////	원소		/////////////

*생체		
*대자연		
*불		
*냉기		
*번개		
*독		
*물		
*바람		

///////////////	공격성능		/////////////
// 추가요인	최소	최대	

*공격력		28 30	37 39
*사정거리	180
*공격속도	7
*명중력		146	164
//*크리티컬	7

//////////////	방어성능		/////////////
// 추가요인

*흡수력		
*방어력		
*블럭율		

//////////////	신발성능		/////////////
// 추가요인

*이동속도		

//////////////	저장공간		/////////////
// 소켓공간할당

*보유공간		

//////////////	특수능력		/////////////
// 추가요인

*생명력재생	
*기력재생	
*근력재생	
*생명력추가	
*기력추가	
*근력추가	
*마법기술숙련도	23	27

//////////////	요구특성		/////////////
// 사용제한 요구치

*레벨		80
*힘		70
*정신력		170
*재능		90
*민첩성		
*건강		

/////////////	회복약		 ////////////
// 추가요인	최소	최대

*생명력상승	
*기력상승	
*근력상승	

//////////////	캐릭터특성	/////////////
// 캐릭터별 특화성능

**특화랜덤 Magician Priestess

// Prayer Shaman//

**마법숙련도	6	9
**기력재생	0.9	1.299
**공격속도	1

*연결파일	"name\WM120.zhoon"