//		아이템 정보		//


*이름		"그레이트 보우"
*Name		"Great Bow"
*코드		"WS106"

///////////////	공통사항		 ////////////

*내구력		43 66
*무게		16
*가격		4800

///////////////	원소		/////////////

*생체		
*대자연		
*불		
*냉기		
*번개		
*독		
*물		
*바람		

///////////////	공격성능		/////////////
// 추가요인	최소	최대	

*공격력		5 7	10 13
*사정거리	215
*공격속도	6
*명중력		42 53
*크리티컬	6

//////////////	방어성능		/////////////
// 추가요인

*흡수력		
*방어력		
*블럭율		

//////////////	신발성능		/////////////
// 추가요인

*이동속도		

//////////////	저장공간		/////////////
// 소켓공간할당

*보유공간		

//////////////	특수능력		/////////////
// 추가요인

*생명력재생	
*기력재생	
*근력재생	
*생명력추가	
*기력추가	
*근력추가	
*마법기술숙련도	

//////////////	요구특성		/////////////
// 사용제한 요구치

*레벨		15
*힘		33
*정신력		
*재능		40
*민첩성		46
*건강		

/////////////	회복약		 ////////////
// 추가요인	최소	최대

*생명력상승	
*기력상승	
*근력상승	

//////////////	캐릭터특성	/////////////
// 캐릭터별 특화성능

**특화 Archer
**특화랜덤 Atalanta
// Rogue //

**공격력	0	5
**크리티컬	5
**공격속도	2
**사정거리	20

*연결파일	"name\WS106.zhoon"